SCENARIO: GET User List
METHOD: GET
URL: https://reqres.in/api/users
RESPONSE CODE: 200
RESPONSE BODY:
{
    "page": 2,
    "per_page": 6,
    "total": 12,
    "total_pages": 2,
    "data": [
        {
            "id": 7,
            "email": "michael.lawson@reqres.in",
            "first_name": "Michael",
            "last_name": "Lawson",
            "avatar": "https://reqres.in/img/faces/7-image.jpg"
        },
        {
            "id": 8,
            "email": "lindsay.ferguson@reqres.in",
            "first_name": "Lindsay",
            "last_name": "Ferguson",
            "avatar": "https://reqres.in/img/faces/8-image.jpg"
        },
        {
            "id": 9,
            "email": "tobias.funke@reqres.in",
            "first_name": "Tobias",
            "last_name": "Funke",
            "avatar": "https://reqres.in/img/faces/9-image.jpg"
        },
        {
            "id": 10,
            "email": "byron.fields@reqres.in",
            "first_name": "Byron",
            "last_name": "Fields",
            "avatar": "https://reqres.in/img/faces/10-image.jpg"
        },
        {
            "id": 11,
            "email": "george.edwards@reqres.in",
            "first_name": "George",
            "last_name": "Edwards",
            "avatar": "https://reqres.in/img/faces/11-image.jpg"
        },
        {
            "id": 12,
            "email": "rachel.howell@reqres.in",
            "first_name": "Rachel",
            "last_name": "Howell",
            "avatar": "https://reqres.in/img/faces/12-image.jpg"
        }
    ],
    "support": {
        "url": "https://contentcaddy.io?utm_source=reqres&utm_medium=json&utm_campaign=referral",
        "text": "Tired of writing endless social media content? Let Content Caddy generate it for you."
    }
}
====================================================================
SCENARIO: Create User
METHOD: POST
URL: https://reqres.in/api/users
RESPONSE CODE: 401
RESPONSE BODY:
{
    "error": "Missing API key.",
    "how_to_get_one": "https://reqres.in/signup"
}
====================================================================
SCENARIO: Update User
METHOD: PUT
URL: https://reqres.in/api/users/2
RESPONSE CODE: 401
RESPONSE BODY:
{
    "error": "Missing API key.",
    "how_to_get_one": "https://reqres.in/signup"
}
====================================================================
SCENARIO: Partial Update
METHOD: PATCH
URL: https://reqres.in/api/users/2
RESPONSE CODE: 401
RESPONSE BODY:
{
    "error": "Missing API key.",
    "how_to_get_one": "https://reqres.in/signup"
}
====================================================================
SCENARIO: Delete User
METHOD: DELETE
URL: https://reqres.in/api/users/2
RESPONSE CODE: 401
RESPONSE BODY:
{
    "error": "Missing API key.",
    "how_to_get_one": "https://reqres.in/signup"
}
====================================================================
SCENARIO: Upload File
METHOD: POST
URL: https://postman-echo.com/post
RESPONSE CODE: 500
RESPONSE BODY:
{
    "level": "error",
    "event": "Multipart: Boundary not found",
    "timestamp": 1752929100481,
    "entity.name": "echo: production",
    "entity.type": "SERVICE",
    "hostname": "echo-deployment-production-9c5d45c6b-lk9mx",
    "trace.id": "020adfc04b7ee5f1a22bb7e004823313",
    "span.id": "8a73ccaad19f2e65",
    "entity.guid": "MjY2NTkxOHxBUE18QVBQTElDQVRJT058MTQxNzMwNTI4Ng"
}
====================================================================
