SCENARIO: GET User List
METHOD: GET
REQUEST HEADERS:
Content-Type: application/json
QUERY PARAMS:
page=2
FORM DATA:

COOKIES:

REQUEST BODY:

URL: https://reqres.in/api/users
+++++++++++++++++++++++++++++++++++++++++++++++++++++
RESPONSE CODE: 200
TIME TAKEN: 1855 ms
RESPONSE HEADERS:
Date: Sat, 19 Jul 2025 12:47:02 GMT
Content-Type: application/json; charset=utf-8
Transfer-Encoding: chunked
Connection: keep-alive
Content-Encoding: gzip
Access-Control-Allow-Origin: *
Etag: W/"440-ZjsmMKR8P3usr2uJZbOCGCxC3Uw"
Nel: {"report_to":"heroku-nel","response_headers":["Via"],"max_age":3600,"success_fraction":0.01,"failure_fraction":0.1}
Ratelimit-Limit: 100
Ratelimit-Policy: 100;w=60
Ratelimit-Remaining: 98
Ratelimit-Reset: 60
Referrer-Policy: strict-origin-when-cross-origin
Report-To: {"group":"heroku-nel","endpoints":[{"url":"https://nel.heroku.com/reports?s=pEYfMlArQalJTNmifqmh1iqBHxQ%2BFpqHmwQT4o4lxi8%3D\u0026sid=c4c9725f-1ab0-44d8-820f-430df2718e11\u0026ts=1752925393"}],"max_age":3600}
Reporting-Endpoints: heroku-nel="https://nel.heroku.com/reports?s=pEYfMlArQalJTNmifqmh1iqBHxQ%2BFpqHmwQT4o4lxi8%3D&sid=c4c9725f-1ab0-44d8-820f-430df2718e11&ts=1752925393"
Via: 1.1 heroku-router
X-Content-Type-Options: nosniff
X-Frame-Options: DENY
X-Request-Id: ae138a06-c0ee-d4b8-b3e4-e99e78807ce2
X-Xss-Protection: 1; mode=block
Cache-Control: max-age=14400
CF-Cache-Status: HIT
Age: 3829
Vary: Accept-Encoding
Server: cloudflare
CF-RAY: 961a5335d85c80b5-BOM
server-timing: cfL4;desc="?proto=TCP&rtt=84972&min_rtt=18463&rtt_var=48136&sent=7&recv=7&lost=0&retrans=0&sent_bytes=3106&recv_bytes=807&delivery_rate=235931&cwnd=252&unsent_bytes=0&cid=ebe3065a510ca4bf&ts=190&x=0"
RESPONSE BODY:
{
    "page": 2,
    "per_page": 6,
    "total": 12,
    "total_pages": 2,
    "data": [
        {
            "id": 7,
            "email": "michael.lawson@reqres.in",
            "first_name": "Michael",
            "last_name": "Lawson",
            "avatar": "https://reqres.in/img/faces/7-image.jpg"
        },
        {
            "id": 8,
            "email": "lindsay.ferguson@reqres.in",
            "first_name": "Lindsay",
            "last_name": "Ferguson",
            "avatar": "https://reqres.in/img/faces/8-image.jpg"
        },
        {
            "id": 9,
            "email": "tobias.funke@reqres.in",
            "first_name": "Tobias",
            "last_name": "Funke",
            "avatar": "https://reqres.in/img/faces/9-image.jpg"
        },
        {
            "id": 10,
            "email": "byron.fields@reqres.in",
            "first_name": "Byron",
            "last_name": "Fields",
            "avatar": "https://reqres.in/img/faces/10-image.jpg"
        },
        {
            "id": 11,
            "email": "george.edwards@reqres.in",
            "first_name": "George",
            "last_name": "Edwards",
            "avatar": "https://reqres.in/img/faces/11-image.jpg"
        },
        {
            "id": 12,
            "email": "rachel.howell@reqres.in",
            "first_name": "Rachel",
            "last_name": "Howell",
            "avatar": "https://reqres.in/img/faces/12-image.jpg"
        }
    ],
    "support": {
        "url": "https://contentcaddy.io?utm_source=reqres&utm_medium=json&utm_campaign=referral",
        "text": "Tired of writing endless social media content? Let Content Caddy generate it for you."
    }
}
====================================================================
SCENARIO: Create User
METHOD: POST
REQUEST HEADERS:
Content-Type: application/json
QUERY PARAMS:

FORM DATA:

COOKIES:

REQUEST BODY:
{"name": "morpheus", "job": "leader"}
URL: https://reqres.in/api/users
+++++++++++++++++++++++++++++++++++++++++++++++++++++
RESPONSE CODE: 401
TIME TAKEN: 360 ms
RESPONSE HEADERS:
Date: Sat, 19 Jul 2025 12:47:04 GMT
Content-Type: application/json; charset=utf-8
Content-Length: 72
Connection: keep-alive
CF-RAY: 961a53447f651c69-BOM
Access-Control-Allow-Origin: *
Etag: W/"48-+Z5A4MsbyryWjwqUCtZ7548heDc"
Nel: {"report_to":"heroku-nel","response_headers":["Via"],"max_age":3600,"success_fraction":0.01,"failure_fraction":0.1}
Ratelimit-Limit: 100
Ratelimit-Policy: 100;w=60
Ratelimit-Remaining: 99
Ratelimit-Reset: 60
Referrer-Policy: strict-origin-when-cross-origin
Report-To: {"group":"heroku-nel","endpoints":[{"url":"https://nel.heroku.com/reports?s=1D%2F%2FF3s4XeZtYtnVEpR63Rx4noXc5Za6rK2hCkNUEVQ%3D\u0026sid=c4c9725f-1ab0-44d8-820f-430df2718e11\u0026ts=1752929224"}],"max_age":3600}
Reporting-Endpoints: heroku-nel="https://nel.heroku.com/reports?s=1D%2F%2FF3s4XeZtYtnVEpR63Rx4noXc5Za6rK2hCkNUEVQ%3D&sid=c4c9725f-1ab0-44d8-820f-430df2718e11&ts=1752929224"
Via: 1.1 heroku-router
X-Content-Type-Options: nosniff
X-Frame-Options: DENY
X-Request-Id: 2012e6da-5c21-27a8-bebd-ce50250a89ea
X-Xss-Protection: 1; mode=block
cf-cache-status: DYNAMIC
Server: cloudflare
server-timing: cfL4;desc="?proto=TCP&rtt=88866&min_rtt=22487&rtt_var=50008&sent=5&recv=6&lost=0&retrans=0&sent_bytes=3106&recv_bytes=858&delivery_rate=193711&cwnd=252&unsent_bytes=0&cid=08966cf0c2de4a1d&ts=180&x=0"
RESPONSE BODY:
{
    "error": "Missing API key.",
    "how_to_get_one": "https://reqres.in/signup"
}
====================================================================
SCENARIO: Update User
METHOD: PUT
REQUEST HEADERS:
Content-Type: application/json
QUERY PARAMS:

FORM DATA:

COOKIES:

REQUEST BODY:
{"name": "morpheus", "job": "zion resident"}
URL: https://reqres.in/api/users/2
+++++++++++++++++++++++++++++++++++++++++++++++++++++
RESPONSE CODE: 401
TIME TAKEN: 395 ms
RESPONSE HEADERS:
Date: Sat, 19 Jul 2025 12:47:06 GMT
Content-Type: application/json; charset=utf-8
Content-Length: 72
Connection: keep-alive
CF-RAY: 961a5352dda88934-BOM
Access-Control-Allow-Origin: *
Etag: W/"48-+Z5A4MsbyryWjwqUCtZ7548heDc"
Nel: {"report_to":"heroku-nel","response_headers":["Via"],"max_age":3600,"success_fraction":0.01,"failure_fraction":0.1}
Ratelimit-Limit: 100
Ratelimit-Policy: 100;w=60
Ratelimit-Remaining: 98
Ratelimit-Reset: 58
Referrer-Policy: strict-origin-when-cross-origin
Report-To: {"group":"heroku-nel","endpoints":[{"url":"https://nel.heroku.com/reports?s=9NTjBfp4IR2euOIm3M%2FYqbdjQ4W%2BOy3KvGkjnE8pxBY%3D\u0026sid=c4c9725f-1ab0-44d8-820f-430df2718e11\u0026ts=1752929226"}],"max_age":3600}
Reporting-Endpoints: heroku-nel="https://nel.heroku.com/reports?s=9NTjBfp4IR2euOIm3M%2FYqbdjQ4W%2BOy3KvGkjnE8pxBY%3D&sid=c4c9725f-1ab0-44d8-820f-430df2718e11&ts=1752929226"
Via: 1.1 heroku-router
X-Content-Type-Options: nosniff
X-Frame-Options: DENY
X-Request-Id: e47ffa39-1f85-4c7a-ae9d-f6118266ae48
X-Xss-Protection: 1; mode=block
CF-Cache-Status: DYNAMIC
Vary: Accept-Encoding
Server: cloudflare
server-timing: cfL4;desc="?proto=TCP&rtt=18459&min_rtt=18133&rtt_var=7452&sent=5&recv=6&lost=0&retrans=0&sent_bytes=3105&recv_bytes=866&delivery_rate=209988&cwnd=252&unsent_bytes=0&cid=24c7c2810d8bbb89&ts=299&x=0"
RESPONSE BODY:
{
    "error": "Missing API key.",
    "how_to_get_one": "https://reqres.in/signup"
}
====================================================================
SCENARIO: Partial Update
METHOD: PATCH
REQUEST HEADERS:
Content-Type: application/json
QUERY PARAMS:

FORM DATA:

COOKIES:

REQUEST BODY:
{"job": "zion leader"}
URL: https://reqres.in/api/users/2
+++++++++++++++++++++++++++++++++++++++++++++++++++++
RESPONSE CODE: 401
TIME TAKEN: 440 ms
RESPONSE HEADERS:
Date: Sat, 19 Jul 2025 12:47:09 GMT
Content-Type: application/json; charset=utf-8
Content-Length: 72
Connection: keep-alive
CF-RAY: 961a5362cfa24421-BOM
Access-Control-Allow-Origin: *
Etag: W/"48-+Z5A4MsbyryWjwqUCtZ7548heDc"
Nel: {"report_to":"heroku-nel","response_headers":["Via"],"max_age":3600,"success_fraction":0.01,"failure_fraction":0.1}
Ratelimit-Limit: 100
Ratelimit-Policy: 100;w=60
Ratelimit-Remaining: 97
Ratelimit-Reset: 56
Referrer-Policy: strict-origin-when-cross-origin
Report-To: {"group":"heroku-nel","endpoints":[{"url":"https://nel.heroku.com/reports?s=U7r1eYpdyMJBLp5B0fzLV4bjy8hihLWHZFZ%2FnJM0LB4%3D\u0026sid=c4c9725f-1ab0-44d8-820f-430df2718e11\u0026ts=1752929229"}],"max_age":3600}
Reporting-Endpoints: heroku-nel="https://nel.heroku.com/reports?s=U7r1eYpdyMJBLp5B0fzLV4bjy8hihLWHZFZ%2FnJM0LB4%3D&sid=c4c9725f-1ab0-44d8-820f-430df2718e11&ts=1752929229"
Via: 1.1 heroku-router
X-Content-Type-Options: nosniff
X-Frame-Options: DENY
X-Request-Id: e4908b63-34d5-bc07-affd-41f4c16d6202
X-Xss-Protection: 1; mode=block
cf-cache-status: DYNAMIC
Server: cloudflare
server-timing: cfL4;desc="?proto=TCP&rtt=93414&min_rtt=53712&rtt_var=48500&sent=5&recv=6&lost=0&retrans=0&sent_bytes=3107&recv_bytes=846&delivery_rate=81099&cwnd=250&unsent_bytes=0&cid=3228743536abe25c&ts=284&x=0"
RESPONSE BODY:
{
    "error": "Missing API key.",
    "how_to_get_one": "https://reqres.in/signup"
}
====================================================================
SCENARIO: Delete User
METHOD: DELETE
REQUEST HEADERS:
Content-Type: application/json
QUERY PARAMS:

FORM DATA:

COOKIES:

REQUEST BODY:

URL: https://reqres.in/api/users/2
+++++++++++++++++++++++++++++++++++++++++++++++++++++
RESPONSE CODE: 401
TIME TAKEN: 660 ms
RESPONSE HEADERS:
Date: Sat, 19 Jul 2025 12:47:12 GMT
Content-Type: application/json; charset=utf-8
Content-Length: 72
Connection: keep-alive
CF-RAY: 961a53725b1646ae-BOM
Access-Control-Allow-Origin: *
Etag: W/"48-+Z5A4MsbyryWjwqUCtZ7548heDc"
Nel: {"report_to":"heroku-nel","response_headers":["Via"],"max_age":3600,"success_fraction":0.01,"failure_fraction":0.1}
Ratelimit-Limit: 100
Ratelimit-Policy: 100;w=60
Ratelimit-Remaining: 96
Ratelimit-Reset: 53
Referrer-Policy: strict-origin-when-cross-origin
Report-To: {"group":"heroku-nel","endpoints":[{"url":"https://nel.heroku.com/reports?s=DApW4GJApj%2FKDEJRm93oq018bPGSp6Ch%2BmlO4L4AEHQ%3D\u0026sid=c4c9725f-1ab0-44d8-820f-430df2718e11\u0026ts=1752929232"}],"max_age":3600}
Reporting-Endpoints: heroku-nel="https://nel.heroku.com/reports?s=DApW4GJApj%2FKDEJRm93oq018bPGSp6Ch%2BmlO4L4AEHQ%3D&sid=c4c9725f-1ab0-44d8-820f-430df2718e11&ts=1752929232"
Via: 1.1 heroku-router
X-Content-Type-Options: nosniff
X-Frame-Options: DENY
X-Request-Id: 4392ada8-daae-5c20-b087-14b733eab80f
X-Xss-Protection: 1; mode=block
cf-cache-status: DYNAMIC
Server: cloudflare
server-timing: cfL4;desc="?proto=TCP&rtt=101392&min_rtt=91488&rtt_var=31625&sent=5&recv=6&lost=0&retrans=0&sent_bytes=3106&recv_bytes=805&delivery_rate=41802&cwnd=252&unsent_bytes=0&cid=858a010c50e59538&ts=505&x=0"
RESPONSE BODY:
{
    "error": "Missing API key.",
    "how_to_get_one": "https://reqres.in/signup"
}
====================================================================
SCENARIO: Upload File
METHOD: POST
REQUEST HEADERS:
Content-Type: multipart/form-data
QUERY PARAMS:

FORM DATA:

COOKIES:

REQUEST BODY:

URL: https://postman-echo.com/post
+++++++++++++++++++++++++++++++++++++++++++++++++++++
RESPONSE CODE: 500
TIME TAKEN: 1758 ms
RESPONSE HEADERS:
Date: Sat, 19 Jul 2025 12:47:15 GMT
Content-Type: application/json; charset=utf-8
Content-Length: 371
Connection: keep-alive
Server: nginx
ETag: W/"173-qnaOtYzp5vtDw3deppBLSWYdnDI"
set-cookie: sails.sid=s%3Avxklt_KWTQ7qmA6Ru-kBWg-7h4-65swN.6eoaCAXSVO5S3aka8xhI28LSPLG1YDOhT2o17ZUHOSU; Path=/; HttpOnly
RESPONSE BODY:
{
    "level": "error",
    "event": "Multipart: Boundary not found",
    "timestamp": 1752929235783,
    "entity.name": "echo: production",
    "entity.type": "SERVICE",
    "hostname": "echo-deployment-production-9c5d45c6b-gjqwf",
    "trace.id": "f3db08d491f6a01c646df07a98cc362a",
    "span.id": "073959d023af2036",
    "entity.guid": "MjY2NTkxOHxBUE18QVBQTElDQVRJT058MTQxNzMwNTI4Ng"
}
====================================================================
